<svg width="512" height="512" xmlns="http://www.w3.org/2000/svg">
  <path fill="#ec5b6a" d="M512 256c.006 18.838-11.946 35.604-29.757 41.74-17.811 6.136-37.553.29-49.151-14.555a42.897 42.897 0 01-7.768-15.534 43.188 43.188 0 010-23.214c5.864-21.259 26.52-34.927 48.38-32.01 21.86 2.915 38.21 21.52 38.296 43.573zm-132.397-70.612a42.201 42.201 0 01-1.589 11.651 42.897 42.897 0 01-7.767 15.535 44.132 44.132 0 01-34.776 16.947 45.527 45.527 0 01-16.329-3.09 44.026 44.026 0 01-14.652-9.62 48.634 48.634 0 01-4.413-5.032 43.055 43.055 0 01-7.414-15.887 41.272 41.272 0 01-1.324-10.504 43.33 43.33 0 012.824-15.534 45.253 45.253 0 019.268-14.829 44.132 44.132 0 0176.172 30.363zm0 141.224a44.132 44.132 0 01-76.172 30.363 45.253 45.253 0 01-9.268-14.829 43.32 43.32 0 01-2.824-15.534 41.268 41.268 0 011.324-10.504 43.055 43.055 0 017.414-15.887 48.634 48.634 0 014.413-5.032 44.026 44.026 0 0114.652-9.62 45.518 45.518 0 0116.329-3.09c19.928-.052 37.393 13.319 42.543 32.57a42.04 42.04 0 011.59 11.563zM229.554 256a41.268 41.268 0 01-1.324 10.503 43.056 43.056 0 01-7.415 15.888 44.132 44.132 0 01-78.643-17.653 43.691 43.691 0 010-17.476 44.132 44.132 0 0178.643-17.653 43.056 43.056 0 017.415 15.888c.89 3.43 1.335 6.96 1.324 10.503zm0-158.876a43.31 43.31 0 01-2.825 15.534 45.253 45.253 0 01-9.268 14.829l-1.059 1.059a44.026 44.026 0 01-14.652 9.62 45.518 45.518 0 01-16.329 3.09 43.806 43.806 0 01-22.154-6.002 43.161 43.161 0 01-13.063-11.563c-11.585-15.34-11.908-36.414-.798-52.102 11.11-15.687 31.096-22.38 49.412-16.544 18.316 5.836 30.748 22.856 30.736 42.079zm0 317.752c.012 19.223-12.42 36.243-30.736 42.079-18.316 5.835-38.302-.856-49.412-16.544s-10.787-36.762.798-52.103a43.161 43.161 0 0113.063-11.562 43.806 43.806 0 0122.154-6.002 45.527 45.527 0 0116.33 3.09 44.026 44.026 0 0114.651 9.62l1.06 1.06a45.253 45.253 0 019.267 14.828 43.32 43.32 0 012.825 15.534zM88.33 256a40.773 40.773 0 01-.882 8.738 44.291 44.291 0 01-8.032 17.83 43.161 43.161 0 01-13.064 11.562c-18.543 10.806-42.171 6.705-55.989-9.717-13.817-16.422-13.817-40.404 0-56.826 13.818-16.422 37.446-20.523 55.99-9.717a43.161 43.161 0 0113.063 11.562 44.291 44.291 0 018.032 17.83A40.72 40.72 0 0188.33 256z" />
  <path fill="#d12b3a" d="M163.267 135.254a2.083 2.083 0 01-.53.795l-82.615 92.766c-.265.264-.442.53-.706.617a43.161 43.161 0 00-13.064-11.562c.113-.302.294-.574.53-.795l82.616-92.766c.264-.264.441-.53.706-.618a43.161 43.161 0 0013.063 11.563zm269.825 93.561a44.009 44.009 0 00-7.768 15.622 4.476 4.476 0 01-1.324-.618l-53.488-30.98c-.088-.089-.177-.089-.265-.265a42.897 42.897 0 007.767-15.535c.469.1.917.278 1.324.53l53.489 30.98c.088.089.176.089.265.266zm-129.661 128.16a3.363 3.363 0 01-1.147.794l-75.202 41.484a.527.527 0 01-.353.089 45.253 45.253 0 00-9.268-14.829 3.363 3.363 0 011.148-.794l75.201-41.485a.527.527 0 01.353-.088 45.253 45.253 0 009.268 14.829zm129.661-73.79c-.089.177-.177.177-.265.265l-53.489 30.981a4.476 4.476 0 01-1.324.618 44.009 44.009 0 00-7.767-15.623c.088-.176.177-.176.265-.265L424 268.181a4.156 4.156 0 011.324-.53 42.897 42.897 0 007.768 15.534zm-129.661-128.16a45.253 45.253 0 00-9.268 14.829.53.53 0 01-.353-.088l-75.2-41.486a3.362 3.362 0 01-1.148-.794 45.253 45.253 0 009.268-14.829.53.53 0 01.353.089l75.202 41.484c.433.182.824.452 1.147.794zM163.267 376.746a43.161 43.161 0 00-13.063 11.562c-.265-.088-.442-.353-.706-.617l-82.616-92.766a2.083 2.083 0 01-.53-.795 43.161 43.161 0 0013.064-11.562c.264.088.441.353.706.617l82.615 92.766c.236.22.417.493.53.795zM141.29 256a40.771 40.771 0 00.882 8.738 2.991 2.991 0 01-.883.088H88.33a3.003 3.003 0 01-.882-.088 43.69 43.69 0 000-17.476c.288-.073.585-.103.882-.088h52.96c.296-.015.593.015.882.088a40.77 40.77 0 00-.883 8.738zm177.41 28.774c.181.245.33.512.442.795a44.026 44.026 0 00-14.652 9.62 4.41 4.41 0 01-.618-.706l-14.563-22.33-11.475 17.564 21.537 10.062a3.1 3.1 0 01.706.442 43.055 43.055 0 00-7.414 15.887l-.795-.265-23.831-11.21-51.017 78.115a4.41 4.41 0 01-.618.706 44.026 44.026 0 00-14.652-9.62c.113-.283.261-.55.442-.795l49.692-75.996-30.363-14.21a3.1 3.1 0 01-.706-.442 43.056 43.056 0 007.415-15.888l.794.265 32.658 15.358L278.717 256l-17.035-26.126-32.658 15.358-.794.265a43.056 43.056 0 00-7.415-15.888c.215-.178.452-.327.706-.441l30.363-14.211-49.692-75.996a3.574 3.574 0 01-.442-.794 44.026 44.026 0 0014.652-9.621c.23.213.438.45.618.706l51.017 78.114 23.831-11.21.795-.264a43.055 43.055 0 007.414 15.887 3.096 3.096 0 01-.706.442l-21.537 10.062 11.475 17.565 14.563-22.331a4.41 4.41 0 01.618-.706 44.026 44.026 0 0014.652 9.62c-.113.283-.261.55-.441.795L299.9 256z" />
</svg>
