<svg width="512" height="512" xmlns="http://www.w3.org/2000/svg">
  <circle fill="#dbdbdb" cx="256" cy="256" r="256" />
  <path fill="#338be0" stroke="#fff" stroke-width="6" d="M144.847 169.83l27.21 50.701h71.005l50.66-87.518h13.554l-24.86-45.52h-92.218z" />
  <path fill="#338be0" stroke="#fff" stroke-width="6" d="M265.402 236.554l48.775 85.608h89.772l45.403-81.72-46.395-80.761h-93.632z" />
  <path fill="#338be0" stroke="#fff" stroke-width="6" d="M96.602 329.694l46.37 81.276 95.298-.014 45.99-81.79-47.81-80.69h-92.378z" />
</svg>
