<svg width="512" height="512" xmlns="http://www.w3.org/2000/svg">
  <path fill="#f44336" d="M299.03 421.248L512 507.755 262.357 8.512z" />
  <path fill="#4caf50" d="M495.083 512L159.38 375.85 0 512z" />
  <path fill="#3f51b5" d="M251.072 0L1.429 496.384l272.214-232.597z" />
  <path fill="#cfd8dc" d="M287.744 416.981l-12.693-140.416-107.2 92.203z" />
</svg>
