<svg width="512" height="512" xmlns="http://www.w3.org/2000/svg">
  <path fill="#102d69" d="M0 0h512v512H0z" />
  <path fill="#fff" d="M132.152 51.2v409.6h247.696v-78.58c0-75.239-24.26-125.87-87.194-148.02 19.864-8.086 31.993-20.742 39.903-30.234 15.119-17.404 21.271-38.677 21.271-58.893 0-16.349-4.569-48.869-33.047-71.37C301.092 58.583 283.689 51.2 242.2 51.2h-23.206zm55.902 20.391h40.609c15.118 0 38.147 3.34 54.496 23.557 8.438 10.196 13.714 23.908 15.472 37.444h-71.022v20.217h71.723c-.527 13.008-3.162 27.599-15.995 43.068-11.25 14.064-29.71 27.074-55.728 27.074h-.527v20.392c69.615 0 96.686 46.235 96.686 130.967v63.988h-44.653V301.53h-51.506v136.945h-39.555z" />
</svg>
