<svg width="512" height="512" xmlns="http://www.w3.org/2000/svg">
  <path fill="#004077" d="M0 0h512v512H0z" />
  <path fill="#00a4e0" d="M362.246 182.89l-156.703-.285-6.7 8.496 156.607.283zm-222.498 73.064h52.108l-88.264 109.692H51.2zm111.58 0l-6.797 8.496-74.953 92.7-6.892 8.496h156.42l-29.547 36.628H146.73l-6.89-8.496-8.025 10.006-3.02 3.682-18.407 22.938-6.797 8.403-.096.093h209.568l88.736-109.882h-157.08l6.985-8.496 22.939-28.036h156.42l22.845-28.036v-.096l6.891-8.4zm84.394-137.73H192.706l-6.798-8.496h156.703z" />
  <path fill="#fff" d="M191.856 255.954h-52.108l-29.36-36.436 52.014-.19zm203.43 64.568l6.515 8.496H244.72l6.984-8.496zm58.906-72.78h-.095l-.186-.284-81.657-101.103H215.173l-22.565-28.131-6.7-8.496H342.61L313.064 73.1H103.496l6.798 8.498 81.654 101.007 6.891 8.496 6.703-8.496 78.068.188 64.948.096 29.642 36.627H221.78l6.797 8.4 16.049 19.825 6.701 8.213H460.8zM296.356 393.683l-156.515.095 6.891 8.496h156.326l.094-.19z" />
</svg>
