<svg width="512" height="512" xmlns="http://www.w3.org/2000/svg">
  <path d="M0 0h512v512H0z" />
  <path fill="#fff" d="M440.088 252.186v8.54h6.002v8.474c.019.756-.023 1.573-.153 2.226-.238 1.58-1.74 4.272-6 4.272-4.235 0-5.71-2.691-5.965-4.27-.107-.655-.153-1.472-.153-2.229v-26.762c0-.946.064-1.983.265-2.767.29-1.426 1.554-4.239 5.821-4.239 4.48 0 5.597 2.966 5.854 4.24.168.843.178 2.258.178 2.258v3.25h14.747v-1.921s.067-2.005-.113-3.876c-1.107-10.984-10.158-14.459-20.535-14.459-10.397 0-19.264 3.507-20.556 14.46-.116 1-.294 2.802-.294 3.875v24.618c0 1.072.034 1.902.233 3.862.962 10.682 10.22 14.468 20.575 14.468 10.42 0 19.613-3.786 20.592-14.468.173-1.96.192-2.79.215-3.862v-15.69zm-101.682-25.688h-14.809v43.319c.023.754 0 1.603-.13 2.225-.309 1.454-1.541 4.252-5.627 4.252-4.033 0-5.298-2.798-5.584-4.253-.148-.621-.167-1.47-.148-2.224v-43.32h-14.805v41.975c-.018 1.083.067 3.293.13 3.872 1.022 10.937 9.643 14.49 20.407 14.49 10.785 0 19.4-3.553 20.44-14.49.083-.579.19-2.79.126-3.872zm-136.07 0l-7.387 45.772-7.383-45.772h-23.888l-1.267 58.556h14.635l.396-54.207 10.07 54.207h14.848l10.078-54.207.398 54.207h14.672l-1.31-58.556zm-88.445 0l-10.847 58.556h15.817l8.173-54.207 7.978 54.207h15.708l-10.801-58.556zm276.27 47.144L376.373 226.5h-21.73v57.943h14.375l-.834-48.652 14.809 48.652h20.84v-57.945h-14.469zM257.2 241.737c-.26-1.156-.185-2.385-.05-3.027.419-1.874 1.678-3.919 5.307-3.919 3.382 0 5.364 2.109 5.364 5.272v3.582h14.437v-4.082c0-12.616-11.312-14.598-19.501-14.598-10.315 0-18.738 3.4-20.277 12.893-.406 2.584-.507 4.877.14 7.803 2.509 11.837 23.116 15.271 26.106 22.757.528 1.418.377 3.226.108 4.292-.448 1.948-1.76 3.907-5.644 3.907-3.643 0-5.836-2.094-5.836-5.252l-.005-5.62h-15.539v4.468c0 12.944 10.139 16.85 21.059 16.85 10.458 0 19.095-3.575 20.481-13.262.661-5.006.163-8.266-.103-9.494-2.421-12.14-24.384-15.792-26.047-22.569m-190.433-.143c-.284-1.18-.218-2.427-.06-3.077.4-1.864 1.667-3.946 5.36-3.946 3.425 0 5.441 2.129 5.441 5.319v3.624h14.606v-4.113c0-12.739-11.485-14.769-19.764-14.769-10.4 0-18.9 3.453-20.454 13.015-.426 2.625-.499 4.934.116 7.892 2.536 11.972 23.347 15.434 26.374 23.009.567 1.408.396 3.216.115 4.323-.481 1.969-1.802 3.956-5.72 3.956-3.657 0-5.845-2.13-5.845-5.331l-.02-5.635H51.2v4.477c0 13.092 10.282 17.029 21.286 17.029 10.58 0 19.269-3.605 20.686-13.405.704-5.051.176-8.338-.062-9.585-2.471-12.29-24.68-15.93-26.346-22.784" />
</svg>
