<svg width="512" height="512" xmlns="http://www.w3.org/2000/svg">
  <path fill="#0c4076" d="M0 184.889h512V327.11H0z" />
  <path fill="#eee" d="M0 384c0 31.417 25.472 56.889 56.889 56.889H455.11C486.528 440.889 512 415.417 512 384v-56.889H0z" />
  <path fill="#c6363c" d="M512 128c0-31.417-25.472-56.889-56.889-56.889H56.89C25.472 71.111 0 96.583 0 128v56.889h512zM99.556 184.889V320c0 43.193 35.015 78.222 78.222 78.222 43.207 0 78.222-35.03 78.222-78.222V184.889z" />
  <path fill="#edb92e" d="M184.448 86.556a2.325 2.325 0 01-2.332 2.333h-11.108a2.325 2.325 0 01-2.332-2.333 2.325 2.325 0 012.332-2.332h11.108a2.325 2.325 0 012.332 2.332zm-5.12 16.441a2.568 2.568 0 01-2.56 2.56 2.568 2.568 0 01-2.56-2.56V80.555a2.568 2.568 0 012.56-2.56 2.568 2.568 0 012.56 2.56zm-1.55-2.56c-56.007 0-73.558 23.78-68.893 32.669 4.665 8.889 18.66 31.772 18.66 31.772s-4.437 1.778 0 10.667 21.774 2.887 50.219 2.887c28.444 0 45.78 6.002 50.218-2.887 4.438-8.889 0-10.667 0-10.667s13.995-22.883 18.674-31.772c4.68-8.89-12.871-32.669-68.878-32.669zm-48.896 42.226c-4.025 1.252 0 13.554-1.422 8.235-1.167-4.395-5.69-6.23-5.69-3.783 0 2.446-1.777 0-1.336-4.438.44-4.451-.882-7.11-3.556-10.894-2.66-3.783-2.66-7.111.683-9.344 3.328-2.219 10.667-3.996 10.667-3.996s2.887 12.672 4.437 15.559c1.55 2.887 4.437 4.778 4.437 4.778s-1.337 2.105 0 3.215c1.337 1.109 2.887 3.783 2.887 3.783s-4.878-3.997-5.76-3.115c-.881.882 1.11 2.005.882 3.556-.227 1.564-2.674-4.665-6.23-3.556zm45.34.228c-1.11 1.109-2.005-.896-4.224-2.447-2.218-1.55-3.555-.654-3.114 1.124.44 1.778-2.674 1.55-2.674 4.224 0 2.674-2.887 1.55-2.887 1.55s3.555-9.33-2.447-9.116c-3.399.128-2.218 7.11 0 9.557-.98-1.493-3.783-1.55-6.115-3.328-2.333-1.778.327-4.679-1.45-4.01-1.779.668-2.888 3.555-4.666 4.223-1.777.669-.881-2.02 0-4.224.882-2.218-1.024-3.328-1.024-3.328s.143-1.55 1.48-2.446c1.336-.882 1.777-2.446 0-4.224-1.778-1.778-8.207-11.776-6.216-15.118 2.006-3.328 8.662-7.111 27.335-6.67 3.328 15.331-1.777 22.883-1.777 22.883s3.783 2.447 4.892 3.783c-2.674 1.124-.668 2.233 1.11 3.784 1.777 1.564 2.887 2.673 1.777 3.783zm34.674-2.447c.882 2.22 1.778 4.893 0 4.224-1.778-.668-2.887-3.555-4.665-4.224-1.778-.668.882 2.233-1.45 4.011-2.333 1.778-5.12 1.835-6.116 3.328 2.219-2.446 3.399-9.43 0-9.557-6.002-.228-2.446 9.116-2.446 9.116s-2.887 1.11-2.887-1.55-3.115-2.446-2.674-4.224c.44-1.778-.882-2.674-3.115-1.124-2.219 1.55-3.115 3.556-4.224 2.447-1.11-1.11 0-2.219 1.778-3.783 1.792-1.55 3.797-2.66 1.123-3.77 1.11-1.336 4.893-3.782 4.893-3.782s-5.106-7.552-1.778-22.884c18.66-.44 25.33 3.328 27.335 6.67 2.006 3.328-4.437 13.34-6.23 15.104-1.791 1.764-1.336 3.328 0 4.224 1.338.882 1.48 2.446 1.48 2.446s-1.92 1.11-1.024 3.328zm29.767-8.66c-2.674 3.782-3.996 6.442-3.555 10.893.44 4.438-1.337 6.884-1.337 4.438 0-2.447-4.523-.598-5.69 3.783-1.421 5.319 2.603-6.97-1.421-8.235-3.556-1.11-8.22 9.557-7.112 8.448 1.11-1.11 2.674-7.552 1.778-8.448-.882-.896-5.774 3.115-5.774 3.115s1.55-2.674 2.887-3.783c1.337-1.11 0-3.215 0-3.215s2.887-1.891 4.437-4.778c1.55-2.887 4.438-15.56 4.438-15.56s7.338 1.778 10.666 3.997c3.328 2.219 3.357 5.561.683 9.344z" />
  <path fill="#c6363c" d="M158.222 173.298c0 2.09-2.403 3.783-5.376 3.783-2.972 0-5.376-1.693-5.376-3.783 0-2.077 2.404-3.77 5.376-3.77 2.958 0 5.376 1.693 5.376 3.77zm48 0c0 2.09-2.403 3.783-5.376 3.783-2.972 0-5.376-1.693-5.376-3.783 0-2.077 2.404-3.77 5.376-3.77 2.958 0 5.376 1.693 5.376 3.77z" />
  <path fill="#0c4076" d="M228.437 174.592c0 2.09-2.403 3.783-5.376 3.783-2.972 0-5.376-1.692-5.376-3.783 0-2.076 2.404-3.769 5.376-3.769 2.973 0 5.376 1.678 5.376 3.769zm-46.279-1.564c0 2.09-2.403 3.783-5.376 3.783-2.972 0-5.376-1.693-5.376-3.783 0-2.091 2.404-3.77 5.376-3.77 2.973 0 5.376 1.679 5.376 3.77zm2.958-72.59a8.561 8.561 0 01-8.561 8.561c-4.722 0-8.562-3.84-8.562-8.562a8.561 8.561 0 018.562-8.561c4.721.014 8.561 3.84 8.561 8.561zm-48.526 74.154c0 2.09-2.403 3.783-5.376 3.783-2.972 0-5.376-1.692-5.376-3.783 0-2.076 2.404-3.769 5.376-3.769 2.973 0 5.376 1.678 5.376 3.769z" />
  <path fill="#fff" d="M243.4 223.118c-2.504-17.18-18.675-11.847-25.544 0-6.87 11.847-12.8 18.958-19.157 10.667-6.358-8.292-10.553-17.18-1.366-28.445l9.188-11.264c-1.309-6.812-6.813-5.333-14.692-2.076-7.879 3.257-12.857 1.778-12.074 5.333.796 3.556 3.669 3.855 3.669 3.855s-4.964 4.835-6.272 21.518c-1.308-16.683-6.272-21.518-6.272-21.518s2.887-.3 3.67-3.855c.782-3.555-4.196-2.076-12.075-5.333-7.88-3.257-13.383-4.736-14.692 2.076l9.188 11.264c9.187 11.264 4.992 20.153-1.366 28.445-6.343 8.291-12.288 2.076-19.157-9.785-6.87-11.847-23.054-17.18-25.543 0-2.503 17.18.398 47.104.398 47.104s-1.579 16.299 1.579 30.222c3.143 13.924 4.992 26.368 0 37.035 5.504-1.48 8.917-8.59 8.917-8.59s-1.835 8.59 1.579 7.708c3.413-.882 4.195-7.41 6.812-9.785 2.631-2.36 4.736-7.694 4.736-7.694s5.518-2.076 0 7.111c4.466.299 7.353-2.674 7.353-2.674l1.565 8.306 2.63-4.437 1.31 7.993 4.72-7.709 3.101 3.556s.583-15.104 4.779-12.146c4.196 2.958 4.452 12.743 1.579 18.66-2.887 5.916 0 8.305 0 8.305s-4.196 6.23-6.343 9.785c-2.148 3.556 1.109 7.694 1.109 7.694s-8.135 12.146-5.874 16.896c2.19 4.552 15.744 7.453 25.657 7.666l.085.043.555-.014.555.014.085-.043c9.913-.213 23.467-3.114 25.657-7.666 2.275-4.736-5.874-16.896-5.874-16.896s3.243-4.138 1.11-7.694c-2.148-3.555-6.358-9.785-6.358-9.785s2.887-2.389 0-8.305c-2.873-5.917-2.617-15.702 1.579-18.66 4.195-2.958 4.764 12.146 4.764 12.146l3.1-3.556 4.722 7.709 1.309-7.993 2.63 4.437 1.565-8.306s2.887 2.959 7.353 2.674c-5.518-9.187 0-7.111 0-7.111s2.105 5.333 4.722 7.708c2.617 2.376 3.413 8.89 6.827 9.785 3.413.882 1.578-7.708 1.578-7.708s3.414 7.111 8.918 8.59c-4.978-10.667-3.143-23.125 0-37.035 3.157-13.923 1.578-30.222 1.578-30.222s2.93-30.82.427-48z" />
  <path fill="#edb92e" d="M169.116 203.548c-6.257-6.001-21.873-13.78-27.05-12.672-5.177 1.124-9.33 4.68-5.476 10.24 3.854 5.561 5.476 5.334 5.476 5.334s6.158-5.561 8.832-2.446c2.674 3.114.44 4.224-4.438 4.664-4.892.441-9.856-2.887-9.856-2.887s1.608 5.775 8.392 6.443c4.565 4.437 10.325 1.11 13.226 1.11 2.902 0 16.441-4.438 10.894-9.786zm16.086 0c6.258-6.001 21.874-13.78 27.05-12.672 5.177 1.11 9.33 4.665 5.476 10.226-3.854 5.561-5.476 5.334-5.476 5.334s-6.158-5.561-8.832-2.447c-2.673 3.115-.44 4.224 4.438 4.665 4.892.441 9.856-2.887 9.856-2.887s-1.607 5.774-8.391 6.443c-4.566 4.451-10.326 1.123-13.227 1.123s-16.455-4.437-10.894-9.785zm-43.42 154.838c1.948-4.494.582-5.134-.982-6.699-1.579-1.55-2.36-3.726-2.36-3.726s-.783 2.162-2.362 3.726c-1.578 1.55-2.944 2.19-.995 6.699-4.736-2.802-5.519 2.332-3.343 5.447.612-2.802 4.338-2.162 4.338 1.251 0 3.414-3.086 1.864-2.716 3.257.384 1.408 3.2 4.352 5.063 4.352 1.863 0 4.693-2.944 5.063-4.352.384-1.408-2.702.157-2.702-3.257 0-3.413 3.712-4.053 4.338-1.251 2.19-3.115 1.408-8.249-3.343-5.447zm77.34 0c1.948-4.494.583-5.134-.996-6.699-1.578-1.55-2.36-3.726-2.36-3.726s-.783 2.162-2.362 3.726c-1.578 1.55-2.944 2.19-.995 6.699-4.736-2.802-5.518 2.332-3.342 5.447.611-2.802 4.337-2.162 4.337 1.251 0 3.414-3.086 1.864-2.702 3.257.37 1.408 3.2 4.352 5.063 4.352 1.863 0 4.694-2.944 5.063-4.352.384-1.408-2.702.157-2.702-3.257 0-3.413 3.712-4.053 4.338-1.251 2.176-3.115 1.408-8.249-3.342-5.447zm-72.832-37.504c-4.864 11.036-5.376 16.47-11.136 16.085-5.774-.384-9.842-1.365-9.842.967 0 2.318 9.173 1.351 9.173 1.351s-8.661 3.698-6.954 7.95c1.692 4.267 9.173-5.418 9.173-5.418s1.522.384 4.409-1.949c2.887-2.318 10.524-13.553 10.524-13.553zm62.748 0c4.864 11.036 5.376 16.47 11.136 16.085 5.774-.384 9.842-1.365 9.842.967 0 2.318-9.16 1.351-9.16 1.351s8.662 3.698 6.956 7.95c-1.693 4.267-9.174-5.418-9.174-5.418s-1.522.384-4.409-1.949c-2.887-2.318-10.524-13.553-10.524-13.553z" />
  <path fill="#c6363c" d="M145.692 240v54.884c0 17.536 14.223 31.772 31.773 31.772 17.55 0 31.772-14.236 31.772-31.772V240z" />
  <path fill="#eee" d="M209.237 272.668H184.32V240h-13.682v32.668h-24.931v13.696h24.931v39.524c2.205.484 4.48.782 6.841.782 2.361 0 4.637-.298 6.855-.782v-39.524h24.932v-13.696z" />
</svg>
