<svg width="512" height="512" xmlns="http://www.w3.org/2000/svg">
  <path d="M506.354 309.229c-29.39 138.26-165.299 226.515-303.567 197.125C64.521 476.964-23.744 341.061 5.644 202.8 35.034 64.525 170.949-23.744 309.216 5.646c138.268 29.39 226.528 165.308 197.137 303.583zm-218.455-45.582c3.765-17.716-7.542-35.126-25.255-38.891-17.713-3.765-35.126 7.54-38.892 25.256-3.765 17.714 7.544 35.127 25.257 38.892 17.713 3.765 35.125-7.543 38.89-25.257zm-89.366-61.17c7.115-33.473-14.251-66.376-47.723-73.49-33.47-7.116-66.371 14.253-73.486 47.726-7.115 33.473 14.25 66.377 47.72 73.491 33.472 7.115 66.374-14.254 73.49-47.727zm15.286 158.64c7.454-35.067-13.639-69.262-47.11-76.376-33.473-7.115-66.648 15.545-74.101 50.612-7.454 35.068 13.636 69.262 47.109 76.377 33.471 7.114 66.648-15.545 74.102-50.613zm156.67 33.302c7.114-33.473-14.252-66.377-47.724-73.492-33.47-7.114-66.371 14.255-73.486 47.728-7.115 33.473 14.25 66.376 47.72 73.49 33.472 7.115 66.374-14.253 73.49-47.726zm80.775-138.222c7.115-33.473-14.252-66.377-47.723-73.491-33.47-7.115-66.371 14.254-73.486 47.727-7.115 33.473 14.25 66.376 47.72 73.49 33.472 7.115 66.374-14.253 73.489-47.726zM344.017 136.58c7.114-33.471-14.252-66.375-47.723-73.49-33.472-7.114-66.372 14.255-73.486 47.726-7.115 33.473 14.249 66.378 47.72 73.493 33.471 7.114 66.374-14.256 73.489-47.73z" />
</svg>
